[api-updater (non-obsolete-error-filter)] 05/07/2021 19:14:37 : Starting /Applications/2020.3.11f1/Unity.app/Contents/Tools/ScriptUpdater/APIUpdater.NonObsoleteApiUpdaterDetector.exe
[api-updater (non-obsolete-error-filter)] 
----------------------------------
jit/startup time      : 526,16ms
moved types parse time: 77ms
candidates parse time : 1ms
C# parse time         : 959ms
candidates check time : 56ms
console write time    : 0ms

[api-updater (non-obsolete-error-filter)] 05/07/2021 19:14:46 : Starting /Applications/2020.3.11f1/Unity.app/Contents/Tools/ScriptUpdater/APIUpdater.NonObsoleteApiUpdaterDetector.exe
[api-updater (non-obsolete-error-filter)] 
----------------------------------
jit/startup time      : 85,308ms
moved types parse time: 53ms
candidates parse time : 1ms
C# parse time         : 253ms
candidates check time : 42ms
console write time    : 0ms

[api-updater (non-obsolete-error-filter)] 05/07/2021 19:32:45 : Starting /Applications/2020.3.11f1/Unity.app/Contents/Tools/ScriptUpdater/APIUpdater.NonObsoleteApiUpdaterDetector.exe
[api-updater (non-obsolete-error-filter)] 
----------------------------------
jit/startup time      : 482,407ms
moved types parse time: 73ms
candidates parse time : 9ms
C# parse time         : 762ms
candidates check time : 48ms
console write time    : 0ms

[api-updater (non-obsolete-error-filter)] 06/07/2021 21:01:56 : Starting /Applications/2020.3.11f1/Unity.app/Contents/Tools/ScriptUpdater/APIUpdater.NonObsoleteApiUpdaterDetector.exe
[api-updater (non-obsolete-error-filter)] 
----------------------------------
jit/startup time      : 707,749ms
moved types parse time: 275ms
candidates parse time : 7ms
C# parse time         : 960ms
candidates check time : 57ms
console write time    : 1ms

[api-updater (non-obsolete-error-filter)] 08/07/2021 14:53:06 : Starting /Applications/2020.3.11f1/Unity.app/Contents/Tools/ScriptUpdater/APIUpdater.NonObsoleteApiUpdaterDetector.exe
[api-updater (non-obsolete-error-filter)] 
----------------------------------
jit/startup time      : 394,881ms
moved types parse time: 59ms
candidates parse time : 1ms
C# parse time         : 739ms
candidates check time : 39ms
console write time    : 0ms

[api-updater (non-obsolete-error-filter)] 08/07/2021 14:53:07 : Starting /Applications/2020.3.11f1/Unity.app/Contents/Tools/ScriptUpdater/APIUpdater.NonObsoleteApiUpdaterDetector.exe
[api-updater (non-obsolete-error-filter)] 
----------------------------------
jit/startup time      : 46,932ms
moved types parse time: 52ms
candidates parse time : 1ms
C# parse time         : 223ms
candidates check time : 37ms
console write time    : 0ms

[api-updater (non-obsolete-error-filter)] 08/07/2021 14:54:40 : Starting /Applications/2020.3.11f1/Unity.app/Contents/Tools/ScriptUpdater/APIUpdater.NonObsoleteApiUpdaterDetector.exe
[api-updater (non-obsolete-error-filter)] 
----------------------------------
jit/startup time      : 357,697ms
moved types parse time: 58ms
candidates parse time : 1ms
C# parse time         : 664ms
candidates check time : 39ms
console write time    : 0ms

[api-updater (non-obsolete-error-filter)] 08/07/2021 14:54:41 : Starting /Applications/2020.3.11f1/Unity.app/Contents/Tools/ScriptUpdater/APIUpdater.NonObsoleteApiUpdaterDetector.exe
[api-updater (non-obsolete-error-filter)] 
----------------------------------
jit/startup time      : 48,26ms
moved types parse time: 53ms
candidates parse time : 1ms
C# parse time         : 224ms
candidates check time : 38ms
console write time    : 0ms

[api-updater (non-obsolete-error-filter)] 08/07/2021 14:59:51 : Starting /Applications/2020.3.11f1/Unity.app/Contents/Tools/ScriptUpdater/APIUpdater.NonObsoleteApiUpdaterDetector.exe
[api-updater (non-obsolete-error-filter)] 
----------------------------------
jit/startup time      : 383,728ms
moved types parse time: 71ms
candidates parse time : 2ms
C# parse time         : 586ms
candidates check time : 56ms
console write time    : 1ms

[api-updater (non-obsolete-error-filter)] 08/07/2021 14:59:52 : Starting /Applications/2020.3.11f1/Unity.app/Contents/Tools/ScriptUpdater/APIUpdater.NonObsoleteApiUpdaterDetector.exe
[api-updater (non-obsolete-error-filter)] 
----------------------------------
jit/startup time      : 66,569ms
moved types parse time: 75ms
candidates parse time : 2ms
C# parse time         : 361ms
candidates check time : 64ms
console write time    : 1ms

[api-updater (non-obsolete-error-filter)] 08/07/2021 15:01:44 : Starting /Applications/2020.3.11f1/Unity.app/Contents/Tools/ScriptUpdater/APIUpdater.NonObsoleteApiUpdaterDetector.exe
[api-updater (non-obsolete-error-filter)] 
----------------------------------
jit/startup time      : 377,106ms
moved types parse time: 82ms
candidates parse time : 3ms
C# parse time         : 886ms
candidates check time : 57ms
console write time    : 2ms

[api-updater (non-obsolete-error-filter)] 08/07/2021 15:01:45 : Starting /Applications/2020.3.11f1/Unity.app/Contents/Tools/ScriptUpdater/APIUpdater.NonObsoleteApiUpdaterDetector.exe
[api-updater (non-obsolete-error-filter)] 
----------------------------------
jit/startup time      : 63,92ms
moved types parse time: 61ms
candidates parse time : 3ms
C# parse time         : 302ms
candidates check time : 45ms
console write time    : 0ms

[api-updater (non-obsolete-error-filter)] 08/07/2021 15:07:12 : Starting /Applications/2020.3.11f1/Unity.app/Contents/Tools/ScriptUpdater/APIUpdater.NonObsoleteApiUpdaterDetector.exe
[api-updater (non-obsolete-error-filter)] 
----------------------------------
jit/startup time      : 519,09ms
moved types parse time: 74ms
candidates parse time : 1ms
C# parse time         : 859ms
candidates check time : 56ms
console write time    : 2ms

[api-updater (non-obsolete-error-filter)] 08/07/2021 15:08:57 : Starting /Applications/2020.3.11f1/Unity.app/Contents/Tools/ScriptUpdater/APIUpdater.NonObsoleteApiUpdaterDetector.exe
[api-updater (non-obsolete-error-filter)] 
----------------------------------
jit/startup time      : 395,529ms
moved types parse time: 63ms
candidates parse time : 1ms
C# parse time         : 571ms
candidates check time : 33ms
console write time    : 1ms

[api-updater (non-obsolete-error-filter)] 08/07/2021 15:08:58 : Starting /Applications/2020.3.11f1/Unity.app/Contents/Tools/ScriptUpdater/APIUpdater.NonObsoleteApiUpdaterDetector.exe
[api-updater (non-obsolete-error-filter)] 
----------------------------------
jit/startup time      : 66,008ms
moved types parse time: 52ms
candidates parse time : 1ms
C# parse time         : 215ms
candidates check time : 32ms
console write time    : 0ms

[api-updater (non-obsolete-error-filter)] 08/07/2021 15:10:05 : Starting /Applications/2020.3.11f1/Unity.app/Contents/Tools/ScriptUpdater/APIUpdater.NonObsoleteApiUpdaterDetector.exe
[api-updater (non-obsolete-error-filter)] 
----------------------------------
jit/startup time      : 286,607ms
moved types parse time: 63ms
candidates parse time : 1ms
C# parse time         : 441ms
candidates check time : 46ms
console write time    : 1ms

[api-updater (non-obsolete-error-filter)] 08/07/2021 15:10:44 : Starting /Applications/2020.3.11f1/Unity.app/Contents/Tools/ScriptUpdater/APIUpdater.NonObsoleteApiUpdaterDetector.exe
[api-updater (non-obsolete-error-filter)] 
----------------------------------
jit/startup time      : 50,681ms
moved types parse time: 53ms
candidates parse time : 2ms
C# parse time         : 182ms
candidates check time : 23ms
console write time    : 0ms

[api-updater (non-obsolete-error-filter)] 08/07/2021 15:10:44 : Starting /Applications/2020.3.11f1/Unity.app/Contents/Tools/ScriptUpdater/APIUpdater.NonObsoleteApiUpdaterDetector.exe
[api-updater (non-obsolete-error-filter)] 
----------------------------------
jit/startup time      : 53,104ms
moved types parse time: 52ms
candidates parse time : 1ms
C# parse time         : 186ms
candidates check time : 22ms
console write time    : 0ms

[api-updater (non-obsolete-error-filter)] 08/07/2021 15:11:48 : Starting /Applications/2020.3.11f1/Unity.app/Contents/Tools/ScriptUpdater/APIUpdater.NonObsoleteApiUpdaterDetector.exe
[api-updater (non-obsolete-error-filter)] 
----------------------------------
jit/startup time      : 275,9ms
moved types parse time: 65ms
candidates parse time : 1ms
C# parse time         : 296ms
candidates check time : 22ms
console write time    : 0ms

[api-updater (non-obsolete-error-filter)] 08/07/2021 15:11:49 : Starting /Applications/2020.3.11f1/Unity.app/Contents/Tools/ScriptUpdater/APIUpdater.NonObsoleteApiUpdaterDetector.exe
[api-updater (non-obsolete-error-filter)] 
----------------------------------
jit/startup time      : 56,109ms
moved types parse time: 52ms
candidates parse time : 1ms
C# parse time         : 184ms
candidates check time : 21ms
console write time    : 0ms

[api-updater (non-obsolete-error-filter)] 08/07/2021 15:12:57 : Starting /Applications/2020.3.11f1/Unity.app/Contents/Tools/ScriptUpdater/APIUpdater.NonObsoleteApiUpdaterDetector.exe
[api-updater (non-obsolete-error-filter)] 
----------------------------------
jit/startup time      : 270,522ms
moved types parse time: 59ms
candidates parse time : 1ms
C# parse time         : 295ms
candidates check time : 34ms
console write time    : 1ms

[api-updater (non-obsolete-error-filter)] 08/07/2021 15:12:57 : Starting /Applications/2020.3.11f1/Unity.app/Contents/Tools/ScriptUpdater/APIUpdater.NonObsoleteApiUpdaterDetector.exe
[api-updater (non-obsolete-error-filter)] 
----------------------------------
jit/startup time      : 49,292ms
moved types parse time: 53ms
candidates parse time : 1ms
C# parse time         : 259ms
candidates check time : 39ms
console write time    : 0ms

